{
  "EDITOR_STATE": {
    "allProjectFiles": {
      "ca1e8bf4-93f2-4b33-9931-8f5ee704f38c": {
        "id": "ca1e8bf4-93f2-4b33-9931-8f5ee704f38c",
        "parent": null,
        "name": "tesssss-indunillll.js",
        "type": "JS_LAMBDA",
        "isDirectory": false,
        "children": [],
        "isRemovable": true,
        "filePath": "tesssss-indunillll.js",
        "cursor": {
          "lineNumber": 4,
          "column": 3
        },
        "config": {
          "runtime": "nodejs14.x",
          "handler": "handler",
          "timeout": 60,
          "memory": 128,
          "layers": [],
          "name": "tesssssIndunillll"
        },
        "triggers": [
          {
            "resourceName": "apigindunilEDIGtestfed7thsachiiiiany",
            "config": {}
          }
        ],
        "lastUpdated": 1644211209796,
        "testCases": {
          "fe00db71-afa1-46fe-934d-dc6e46ffbcfe": {
            "id": "fe00db71-afa1-46fe-934d-dc6e46ffbcfe",
            "name": "Test event",
            "functionId": "ca1e8bf4-93f2-4b33-9931-8f5ee704f38c",
            "event": "{\"key1\": \"value1\", \"key2\": \"value2\", \"key3\": \"value3\"}",
            "eventTemplate": "hello-world"
          }
        }
      }
    },
    "openFiles": [
      "ca1e8bf4-93f2-4b33-9931-8f5ee704f38c"
    ],
    "currentFileId": "ca1e8bf4-93f2-4b33-9931-8f5ee704f38c",
    "resources": {
      "apigindunilEDIGtestfed7thsachiiiiany": {
        "name": "apigindunilEDIGtestfed7thsachiiiiany",
        "type": "API_GATEWAY",
        "config": {
          "apiType": 1,
          "apiMode": 0,
          "apiName": "indunilEDIGtest",
          "endpointType": "EDGE",
          "resourceMode": 0,
          "resourceName": "fed7th/sachiiii",
          "resourcePath": "/fed7th/sachiiii",
          "restMethod": "ANY",
          "proxyIntegration": false,
          "enableCORS": false,
          "stageMode": 0,
          "stageName": "Prod",
          "mode": 0
        }
      }
    },
    "customTemplate": {
      "syntax": "JSON",
      "overrideDefault": false,
      "dialect": null,
      "definitions": null
    },
    "envVariables": [
      {
        "lambdaId": "all",
        "varKey": "SIGMA_AWS_ACC_ID",
        "varValue": null,
        "shouldPersist": false,
        "displayOnly": false,
        "editable": false
      }
    ],
    "packageJSON": {
      "dependencies": {}
    }
  },
  "PROJECT_META": {
    "sigmaVersion": "1.9.5",
    "projectName": "tesssss-indunillll",
    "projectDescription": "",
    "projectVersion": "1.0.0",
    "projectRegion": "us-east-1",
    "platform": "AWS",
    "language": "nodejs",
    "platformRegions": {},
    "lastSave": 1644214257633
  },
  "VCS_STATE": {
    "provider": "GitLab",
    "repo": {
      "name": "tesssss-indunillll",
      "url": "https://gitlab.com/indunilSigma/tesssss-indunillll"
    }
  }
}